{
  "project_info": {
    "project_number": "394559711506",
    "firebase_url": "https://mylawyer-5e72d-default-rtdb.firebaseio.com",
    "project_id": "mylawyer-5e72d",
    "storage_bucket": "mylawyer-5e72d.appspot.com"
  },
  "client": [
    {
      "client_info": {
        "mobilesdk_app_id": "1:394559711506:android:6265c9cc81d0d3851e2bcb",
        "android_client_info": {
          "package_name": "com.example.mylawyer"
        }
      },
      "oauth_client": [
        {
          "client_id": "394559711506-fktl0gbl0uoarfm7dgk9kg4uij0shke4.apps.googleusercontent.com",
          "client_type": 3
        }
      ],
      "api_key": [
        {
          "current_key": "AIzaSyCG3J04RZb_ju406frGCw3n9WDPVITnP0w"
        }
      ],
      "services": {
        "appinvite_service": {
          "other_platform_oauth_client": [
            {
              "client_id": "394559711506-fktl0gbl0uoarfm7dgk9kg4uij0shke4.apps.googleusercontent.com",
              "client_type": 3
            }
          ]
        }
      }
    },
    {
      "client_info": {
        "mobilesdk_app_id": "1:394559711506:android:bbe01063acc25a1f1e2bcb",
        "android_client_info": {
          "package_name": "com.example.mylawyerapp_flutter"
        }
      },
      "oauth_client": [
        {
          "client_id": "394559711506-fktl0gbl0uoarfm7dgk9kg4uij0shke4.apps.googleusercontent.com",
          "client_type": 3
        }
      ],
      "api_key": [
        {
          "current_key": "AIzaSyCG3J04RZb_ju406frGCw3n9WDPVITnP0w"
        }
      ],
      "services": {
        "appinvite_service": {
          "other_platform_oauth_client": [
            {
              "client_id": "394559711506-fktl0gbl0uoarfm7dgk9kg4uij0shke4.apps.googleusercontent.com",
              "client_type": 3
            }
          ]
        }
      }
    },
    {
      "client_info": {
        "mobilesdk_app_id": "1:394559711506:android:dc357b497429508a1e2bcb",
        "android_client_info": {
          "package_name": "com.mylawyerapp_flutter"
        }
      },
      "oauth_client": [
        {
          "client_id": "394559711506-fktl0gbl0uoarfm7dgk9kg4uij0shke4.apps.googleusercontent.com",
          "client_type": 3
        }
      ],
      "api_key": [
        {
          "current_key": "AIzaSyCG3J04RZb_ju406frGCw3n9WDPVITnP0w"
        }
      ],
      "services": {
        "appinvite_service": {
          "other_platform_oauth_client": [
            {
              "client_id": "394559711506-fktl0gbl0uoarfm7dgk9kg4uij0shke4.apps.googleusercontent.com",
              "client_type": 3
            }
          ]
        }
      }
    }
  ],
  "configuration_version": "1"
}